{
    "reserveRequest": {
        "patientDetails": {
            "name": "Mark Smith",
            "dob": "1990-03-19",
            "ssn": "ASJK-asnda-AAA",
            "address": "100 MAIN ST, SEATTLE WA 98104, USA",
            "phone": "0770596754",
            "email": "marksm@mymail.com"
        },
        "doctor": "thomas collins",
        "hospital": "grand oak community hospital",
        "category": "surgery",
        "cardNo": "7844481124110331"
    }
}
